26食品质量与安全2不限43500
33园林2不限43500
34学前教育1不限43500
0581红河学院(云南)4
业、高分子材料与工程、材料化
31电子信息类(含电子信息工程、1不限45200
学与技术、光电信息科学与工
38轨道交通信号与控制1不限45200
39化学(含师范方向、应用化学方1不限44000
向)
3B机械电子工程1不限45200
3E建筑类(含建筑学、城乡规划、1不限55200
46土木工程(含道路桥梁工程方1不限45200
向、房屋建筑工程两个方向)
0589湖北经济学院(武汉)5
10金融学类(含金融学、投资学、2不限45200
信用管理)
18土木工程2不限45200
39 电子信息工程(新兴产业计划) 2不限45200
0593湖北民族学院(恩施)4
