06 经济与金融1(5000元)
14 金融学(金融学院)2(5000元)
18 金融工程2(5000元)
20 会计学2(5000元)
26 市场营销1(5000元)
30 保险学1(5000元)
38 金融数学2(5000元)
62 信息管理与信息系统1(5000元)
1018 中国政法大学 23名
校址:北京市
25 法学10(5000元)
27 法学(法学人才培养模式改革实验
班)3(5000元)
养方案完成教学进度,必修课成绩排名
前90%的学生且经考核合格后,方可进
入第二阶段即两年应用学习阶段学习,
应用学习阶段合格后准予毕业并授予
41 公共管理类1(5000元)
44 材料科学与工程2(5500元)
52 市场营销3(5000元)
