47 国际经济与贸易(招英语考生)(需口试)50001
48 汉语国际救育(招英语考生)(需口试)50001
49 英语(招英语考生)(需口试)60001
50 计算机科学与技术(招英语考生)50001
(北京市,10033)
考试合格,高考英语成绩须达到满分的
63 广播电视工程55002
65 信息安全55002
67 数字媒体技术55002
35 经济学(数理经济与数理车融)(非英语语50003
38 税收学50002
39 金融学50002
42 国际经济与贸易50002
46 会计学(注册会计师)50002
48 国际商务50001
49 资产评估50003
50 城市管理50002
30 金融学(金融学院)
金融学(国际经济贸易学院)50002
33 保险学50001
