01电子商务1四16000
招生章程网址:www.nsu.edu.cn
6074成都理工大学工程技术10
招生章程网址:http://zsb.cdutetc.cn/
6076成都文理学院1
01国际商务1四14000
招生章程网址:www.cdcas.edu.cn
6077成都信息工程大学 9
02会计学1四4400
06人力资源管理1四4400
08物流管理1四4400
招生章程网址:
6079成都学院13
02旅游管理4四3700
03英语4四3700
( 限英语,需口试 )
04商务英语5四3700
( 限英语,需口试 )
招生章程网址:zhaosheng.cdu.edu.cn
2-113
